<?xml version="1.0" encoding="utf-8"?>
<!-- Generator: Adobe Illustrator 19.1.0, SVG Export Plug-In . SVG Version: 6.00 Build 0)  -->
<svg version="1.1" id="Layer_1" xmlns="http://www.w3.org/2000/svg" xmlns:xlink="http://www.w3.org/1999/xlink" x="0px" y="0px"
	 viewBox="0 0 655.1 102.1" style="enable-background:new 0 0 655.1 102.1;" xml:space="preserve">
<style type="text/css">
	.st0{fill:#FDD800;}
	.st1{fill:none;stroke:#334E7F;stroke-width:2;stroke-miterlimit:10;}
</style>
<g>
	<polygon class="st0" points="645,97 614,97 583,97 583,62 583,27 614,27 645,27 625,62 	"/>
	<g>
		<path class="st1" d="M648.8,101c-10.3-0.6-20.7-1-31-1c-10.3,0-20.7,0.3-31,1c-0.7-11.6-1.5-23.3-2.2-34.9s-1.5-23.3-2.2-34.9
			c11.8-0.7,23.6-1.1,35.4-1.1c11.8,0,23.6,0.4,35.4,1.1c-8.3,11.2-16.2,22.5-23.6,34C636.5,77,642.9,88.9,648.8,101z"/>
	</g>
</g>
<g>
	<polygon class="st0" points="2.5,27 33.5,27 64.5,27 64.5,62 64.5,97 33.5,97 2.5,97 22.5,62 	"/>
	<g>
		<path class="st1" d="M1.9,31.1C13.7,30.4,25.5,30,37.3,30c11.8,0,23.6,0.4,35.4,1.1c-0.7,11.6-1.5,23.3-2.2,34.9
			C69.8,77.7,69,89.4,68.3,101c-10.3-0.6-20.7-1-31-1c-10.3,0-20.7,0.3-31,1c5.9-12.1,12.3-24,19.2-35.8
			C18.1,53.6,10.2,42.3,1.9,31.1z"/>
	</g>
</g>
<g>
	<path class="st0" d="M612.9,79C422.3,67,231.1,67,40.5,79c-1.5-23.3-2.9-46.6-4.4-69.9C229.7-3,423.8-3,617.3,9.1
		C615.9,32.4,614.4,55.7,612.9,79z"/>
</g>
<g>
	<path class="st1" d="M613.8,81C423.2,69,232,69,41.4,81c-1.5-23.3-2.9-46.6-4.4-69.9C230.5-1,424.7-1,618.2,11.1
		C616.7,34.4,615.3,57.7,613.8,81z"/>
</g>
</svg>
