<?xml version="1.0" encoding="utf-8"?>
<!-- Generator: Adobe Illustrator 19.1.0, SVG Export Plug-In . SVG Version: 6.00 Build 0)  -->
<svg version="1.1" id="Layer_1" xmlns="http://www.w3.org/2000/svg" xmlns:xlink="http://www.w3.org/1999/xlink" x="0px" y="0px"
	 viewBox="0 0 61 93.2" style="enable-background:new 0 0 61 93.2;" xml:space="preserve">
<style type="text/css">
	.st0{opacity:0.2;}
	
		.st1{fill:none;stroke:#FFFFFF;stroke-width:22;stroke-linecap:round;stroke-linejoin:round;stroke-miterlimit:10;stroke-dasharray:1,60;}
</style>
<g class="st0">
	<line class="st1" x1="-813" y1="58.1" x2="1167" y2="58.1"/>
	<line class="st1" x1="-782" y1="104.1" x2="1198" y2="104.1"/>
</g>
<g class="st0">
	<line class="st1" x1="-782" y1="11.1" x2="1198" y2="11.1"/>
</g>
</svg>
